…
Summarize the data by date to get the daily sales.

``` r
data_daily <- data %>%
  group_by(date) %>%
  summarise(daily_sales = sum(money_spent))

data_daily
```

    ## # A tibble: 56 x 2
    ##    date       daily_sales
    ##    <chr>            <int>
    ##  1 2015-10-03      128475
    ##  2 2015-10-04      130772
    ##  3 2015-10-05       46946
    ##  4 2015-10-06       49711
    ##  5 2015-10-07       45242
    ##  6 2015-10-08       48463
    ##  7 2015-10-09       48389
    ##  8 2015-10-10      129837
    ##  9 2015-10-11      128229
    ## 10 2015-10-12       48712
    ## # … with 46 more rows
…
It is quite possible that new program is cannibalizing sales from the
existing users. Lets check if that is the case.

``` r
# Check if multiple users are using same device
counts_deviceid <- data %>%
  group_by(device_id) %>%
  summarise(n_users = n_distinct(user_id), referral_types = n_distinct(is_referral)) %>%
  arrange(desc(referral_types))

counts_deviceid
```

    ## # A tibble: 17,887 x 3
    ##    device_id     n_users referral_types
    ##    <chr>           <int>          <int>
    ##  1 AAEIJZQUXUETO       1              2
    ##  2 AAFWFCPHRVTTE       2              2
    ##  3 AALHUFWNVROUD       2              2
    ##  4 AANBNDYFXDDTU       2              2
    ##  5 AANMQLIXUDKFJ       2              2
    ##  6 AAPOSGLGOGVMI       2              2
    ##  7 AAUOIIUZHHWTL       1              2
    ##  8 ABABAWCOLPZXO       2              2
    ##  9 ABADIUGCJRDOV       2              2
    ## 10 ABAPCEOKZCDAH       1              2
    ## # … with 17,877 more rows
…
