…
Get user ids with most units bought by product.

``` r
most_units_by_item <- purchases_tidy %>%
  group_by(item_id, user_id) %>%
  summarise(units_bought = n()) %>%
  arrange(item_id, desc(units_bought)) %>%
  filter(row_number() == 1) %>%
  inner_join(items, by = c("item_id" = "Item_id")) 

# user id with most number of purchases by item
most_units_by_item
```

    ## # A tibble: 48 x 4
    ## # Groups:   item_id [48]
    ##    item_id user_id units_bought Item_name    
    ##      <int>   <int>        <int> <chr>        
    ##  1       1   31625            4 sugar        
    ##  2       2   31625            5 lettuce      
    ##  3       3  154960            4 pet items    
    ##  4       4    5289            3 baby items   
    ##  5       5  217277            3 waffles      
    ##  6       6  334664            4 poultry      
    ##  7       7  175865            3 sandwich bags
    ##  8       8  151926            3 butter       
    ##  9       9  269335            4 soda         
    ## 10      10  618914            4 carrots      
    ## # ... with 38 more rows
…
