…
``` r
daily_engagement_summary <- daily_engagement_by_state_date %>%
  group_by(user_state) %>%
  summarise(avg_daily_engagement = round(mean(daily_engagement), digits = 2)) 

daily_engagement_summary
```

    ## # A tibble: 41 x 2
    ##    user_state  avg_daily_engagement
    ##    <chr>                      <dbl>
    ##  1 Alabama                    0.93 
    ##  2 Alaska                     1.04 
    ##  3 Arizona                    0.79 
    ##  4 Arkansas                   0.61 
    ##  5 California                 0.72 
    ##  6 Colorado                   0.64 
    ##  7 Connecticut                0.570
    ##  8 Florida                    0.92 
    ##  9 Georgia                    0.8  
    ## 10 Idaho                      0.93 
    ## # … with 31 more rows
…
First users by state

``` r
first_users_by_state <- songs %>%
  group_by(user_state) %>%
  arrange(user_sign_up_date) %>%
  filter(row_number() == 1) %>%
  ungroup() %>%
  select(user_state, user_id) %>%
  arrange(user_state)

first_users_by_state
```

    ## # A tibble: 41 x 2
    ##    user_state  user_id
    ##    <chr>         <int>
    ##  1 Alabama           5
    ##  2 Alaska          106
    ##  3 Arizona         105
    ##  4 Arkansas         78
    ##  5 California       39
    ##  6 Colorado        173
    ##  7 Connecticut     127
    ##  8 Florida          41
    ##  9 Georgia          20
    ## 10 Idaho           165
    ## # … with 31 more rows
…
Combine all the predictions.

``` r
# Combining  
next_song_final <- missing_songs %>%
  select(song = song1, next_song = song2) %>%
  bind_rows(next_song) %>%
  arrange(song) %>%
  select(song, next_song)

next_song_final
```

    ## # A tibble: 100 x 2
    ## # Groups:   song [100]
    ##    song                                next_song                
    ##    <chr>                               <chr>                    
    ##  1 A DAY IN THE LIFE                   COME TOGETHER            
    ##  2 A HARD DAY'S NIGHT                  LET IT BE                
    ##  3 A SATURDAY CLUB XMAS/CRIMBLE MEDLEY GIRL                     
    ##  4 ACROSS THE UNIVERSE                 WE CAN WORK IT OUT       
    ##  5 ALL MY LOVING                       HEY JUDE                 
    ##  6 ALL YOU NEED IS LOVE                LET IT BE                
    ##  7 AND YOUR BIRD CAN SING              COME TOGETHER            
    ##  8 ANYTIME AT ALL                      LET IT BE                
    ##  9 BABY YOU'RE A RICH MAN              REPRISE / DAY IN THE LIFE
    ## 10 BACK IN THE U.S.S.R.                REVOLUTION               
    ## # … with 90 more rows
…
